<?xml version="1.0" encoding="iso-8859-1"?>
<svg version="1.1" id="Layer_1" xmlns="http://www.w3.org/2000/svg" xmlns:xlink="http://www.w3.org/1999/xlink" x="0px" y="0px"
	 viewBox="0 0 426.667 426.667" style="enable-background:new 0 0 426.667 426.667;" xml:space="preserve" class="gicon" fill="#c6deee">
<g>
	<g>
		<path d="M384,128h-85.333V42.667C298.667,19.115,279.552,0,256,0h-85.333C147.115,0,128,19.115,128,42.667V128H42.667
			C19.115,128,0,147.115,0,170.667V256c0,23.552,19.115,42.667,42.667,42.667H128V384c0,23.552,19.115,42.667,42.667,42.667H256
			c23.552,0,42.667-19.115,42.667-42.667v-85.333H384c23.552,0,42.667-19.115,42.667-42.667v-85.333
			C426.667,147.115,407.552,128,384,128z M384,256H256l-0.064,128h-85.269V256h-128v-85.333h128v-128H256v128h128V256z"/>
	</g>
</g>
</svg>
