<?xml version="1.0" encoding="iso-8859-1"?>
<!-- Generator: Adobe Illustrator 19.0.0, SVG Export Plug-In . SVG Version: 6.00 Build 0)  -->
<svg version="1.1" id="Layer_1" xmlns="http://www.w3.org/2000/svg" xmlns:xlink="http://www.w3.org/1999/xlink" x="0px" y="0px"
	 viewBox="0 0 426.667 426.667" style="enable-background:new 0 0 426.667 426.667;" xml:space="preserve">
<g>
	<g>
		<g>
			<path d="M320,0H106.667C83.115,0,64,19.136,64,42.667v362.667c0,7.872,4.331,15.104,11.264,18.816
				c6.891,3.691,15.339,3.285,21.888-1.067l116.181-77.44l116.16,77.44c3.584,2.368,7.701,3.584,11.84,3.584
				c3.456,0,6.912-0.832,10.069-2.517c6.933-3.712,11.264-10.944,11.264-18.816V42.667C362.667,19.136,343.552,0,320,0z
				 M320,365.483l-94.827-63.232c-7.168-4.779-16.491-4.779-23.659,0l-94.848,63.232V42.667H320V365.483z"/>
			<polygon points="149.333,256 213.333,213.333 277.333,256 256,192 298.667,149.333 234.667,149.333 213.333,85.333 192,149.333 
				128,149.333 170.667,192 			"/>
		</g>
	</g>
</g>
<g>
</g>
<g>
</g>
<g>
</g>
<g>
</g>
<g>
</g>
<g>
</g>
<g>
</g>
<g>
</g>
<g>
</g>
<g>
</g>
<g>
</g>
<g>
</g>
<g>
</g>
<g>
</g>
<g>
</g>
</svg>
