<?xml version="1.0" encoding="iso-8859-1"?>
<!-- Generator: Adobe Illustrator 19.0.0, SVG Export Plug-In . SVG Version: 6.00 Build 0)  -->
<svg version="1.1" id="Capa_1" xmlns="http://www.w3.org/2000/svg" xmlns:xlink="http://www.w3.org/1999/xlink" x="0px" y="0px"
	 viewBox="0 0 512 512" style="enable-background:new 0 0 512 512;" xml:space="preserve">
<g>
	<g>
		<path d="M506.008,184.006L451,142.693V46c0-8.284-6.716-15-15-15h-60c-8.284,0-15,6.716-15,15v29.1L265.008,3.006
			c-5.336-4.008-12.68-4.008-18.016,0l-241,181C2.22,186.839,0,191.282,0,196v90c0,8.284,6.716,15,15,15h46v196
			c0,8.284,6.716,15,15,15h360c8.284,0,15-6.716,15-15V301h46c8.284,0,15-6.716,15-15v-90
			C512,191.282,509.78,186.839,506.008,184.006z M391,61h30v59.162l-30-22.531V61z M421,482H91V233.5l165-123.75L421,233.5V482z
			 M482,271h-31v-45c0-4.721-2.223-9.167-6-12L265,79c-5.333-4-12.667-4-18,0L67,214c-3.777,2.833-6,7.279-6,12v45H30v-67.506
			L256,33.759l226,169.735V271z"/>
	</g>
</g>
<g>
	<g>
		<path d="M256,181c-74.439,0-135,60.561-135,135s60.561,135,135,135s135-60.561,135-135S330.44,181,256,181z M256,421
			c-57.897,0-105-47.103-105-105c0-57.897,47.103-105,105-105c57.897,0,105,47.103,105,105C361,373.897,313.897,421,256,421z"/>
	</g>
</g>
<g>
	<g>
		<path d="M256,301c-8.271,0-15-6.729-15-15c0-6.042,3.595-11.468,9.16-13.825c6.714-2.844,14.755-0.417,22.058,6.659
			c5.95,5.764,15.447,5.614,21.21-0.336c5.765-5.95,5.614-15.446-0.335-21.21c-6.772-6.561-14.3-11.198-22.093-13.815V226
			c0-8.284-6.716-15-15-15s-15,6.716-15,15v17.571c-0.851,0.303-1.699,0.623-2.54,0.979C221.779,251.616,211,267.885,211,286
			c0,24.813,20.187,45,45,45c8.271,0,15,6.729,15,15c0,6.286-3.965,11.954-9.866,14.103c-7.706,2.805-16.674-1-24.606-10.445
			c-5.328-6.344-14.789-7.168-21.133-1.839c-6.344,5.328-7.167,14.789-1.839,21.133c8.109,9.655,17.548,16.276,27.445,19.608V406
			c0,8.284,6.716,15,15,15S271,414.284,271,406v-17.573c0.134-0.047,0.268-0.088,0.401-0.136C289.105,381.843,301,364.847,301,346
			C301,321.187,280.813,301,256,301z"/>
	</g>
</g>
<g>
</g>
<g>
</g>
<g>
</g>
<g>
</g>
<g>
</g>
<g>
</g>
<g>
</g>
<g>
</g>
<g>
</g>
<g>
</g>
<g>
</g>
<g>
</g>
<g>
</g>
<g>
</g>
<g>
</g>
</svg>
