<svg xmlns="http://www.w3.org/2000/svg" height="512pt" version="1.1" viewBox="0 0 512 512" width="512pt">
<g id="surface1">
<path d="M 256 512 C 396.960938 512 512 396.949219 512 256 C 512 115.046875 396.957031 0.00390625 256.007812 0 C 256.003906 0 256.003906 0 256 0 C 256 0 255.996094 0 255.996094 0 C 115.039062 0.00390625 0 115.050781 0 256 C 0 396.960938 115.050781 512 256 512 Z M 86.019531 107.234375 L 129.261719 150.472656 C 108.394531 175.488281 94.789062 206.75 91.6875 241 L 30.511719 241 C 33.871094 189.957031 54.25 143.488281 86.019531 107.234375 Z M 481.488281 241 L 420.3125 241 C 417.210938 206.75 403.605469 175.488281 382.738281 150.472656 L 425.980469 107.234375 C 457.75 143.488281 478.128906 189.957031 481.488281 241 Z M 425.980469 404.769531 L 382.738281 361.527344 C 403.601562 336.511719 417.210938 305.242188 420.3125 270.992188 L 481.488281 270.992188 C 478.128906 322.035156 457.75 368.511719 425.980469 404.769531 Z M 256 121 C 330.234375 121 391 181.375 391 256 C 391 330.238281 330.625 391 256 391 C 181.765625 391 121 330.625 121 256 C 121 181.765625 181.375 121 256 121 Z M 150.472656 382.738281 C 175.488281 403.605469 206.75 417.210938 241 420.3125 L 241 481.488281 C 189.953125 478.128906 143.488281 457.75 107.234375 425.980469 Z M 271 420.3125 C 305.25 417.210938 336.511719 403.605469 361.527344 382.738281 L 404.765625 425.980469 C 368.511719 457.75 322.042969 478.128906 271 481.488281 Z M 361.527344 129.261719 C 336.511719 108.398438 305.25 94.789062 271 91.6875 L 271 30.511719 C 322.046875 33.871094 368.511719 54.25 404.765625 86.019531 Z M 241 91.6875 C 206.75 94.789062 175.488281 108.394531 150.472656 129.261719 L 107.234375 86.019531 C 143.488281 54.25 189.953125 33.871094 241 30.511719 Z M 91.6875 271 C 94.789062 305.25 108.394531 336.511719 129.261719 361.527344 L 86.019531 404.765625 C 54.25 368.511719 33.871094 322.046875 30.511719 271 Z M 91.6875 271 " style=" stroke:none;fill-rule:nonzero;fill:rgb(0%,0%,0%);fill-opacity:1;" />
<path d="M 226 301 C 231.488281 301 236.488281 300 241 298.261719 L 241 301 C 241 309.269531 234.269531 316 226 316 C 217.714844 316 211 322.714844 211 331 C 211 339.285156 217.714844 346 226 346 L 286 346 C 294.285156 346 301 339.285156 301 331 C 301 322.714844 294.285156 316 286 316 C 277.730469 316 271 309.269531 271 301 L 271 298.277344 C 275.511719 300.007812 280.511719 301 286 301 C 311.234375 301 331 280.105469 331 253.433594 C 331 225.796875 310.128906 208.183594 281.242188 183.800781 C 276.316406 179.640625 271.21875 175.339844 265.824219 170.664062 C 260.1875 165.777344 251.8125 165.777344 246.175781 170.664062 C 240.78125 175.339844 235.6875 179.640625 230.757812 183.800781 C 201.871094 208.183594 181 225.796875 181 253.433594 C 181 280.105469 200.765625 301 226 301 Z M 250.105469 206.726562 C 252.042969 205.09375 254.003906 203.4375 256 201.746094 C 258 203.4375 259.960938 205.09375 261.894531 206.726562 C 287.589844 228.414062 301 240.34375 301 253.433594 C 301 262.164062 295.847656 271 286 271 C 275.4375 271 270.921875 257.480469 270.441406 255.9375 C 268.515625 249.765625 262.851562 245.519531 256.386719 245.402344 L 256.128906 245.398438 C 256.035156 245.394531 255.949219 245.394531 255.855469 245.394531 C 249.320312 245.394531 243.519531 249.636719 241.550781 255.890625 C 241.066406 257.4375 236.492188 271 226 271 C 216.152344 271 211 262.164062 211 253.433594 C 211 240.34375 224.410156 228.414062 250.105469 206.726562 Z M 250.105469 206.726562 " style=" stroke:none;fill-rule:nonzero;fill:rgb(0%,0%,0%);fill-opacity:1;" />
</g>
</svg>