<?xml version="1.0" encoding="iso-8859-1"?>
<!-- Generator: Adobe Illustrator 19.0.0, SVG Export Plug-In . SVG Version: 6.00 Build 0)  -->
<svg version="1.1" id="Capa_1" xmlns="http://www.w3.org/2000/svg" xmlns:xlink="http://www.w3.org/1999/xlink" x="0px" y="0px"
	 viewBox="0 0 512 512" style="enable-background:new 0 0 512 512;" xml:space="preserve">
<g>
	<g>
		<path d="M467,0C448.387,0,63.609,0,45,0C20.187,0,0,20.187,0,45c0,5.482,0,415.773,0,422c0,24.813,20.187,45,45,45h422
			c24.813,0,45-20.187,45-45V165V45C512,20.187,491.813,0,467,0z M340.569,30l54,45H321.43l-54-45H340.569z M321.431,105h73.139
			l-54,45h-73.139L321.431,105z M220.57,150h-73.139l54-45h73.139L220.57,150z M220.569,30l54,45H201.43l-54-45H220.569z M30,45
			c0-8.271,6.729-15,15-15h55.569l72,60l-72,60H30V45z M482,467c0,8.271-6.729,15-15,15H45c-8.271,0-15-6.729-15-15V180
			c45.691,0,442.64,0,452,0V467z M482,150h-94.569l54-45H482V150z M482,75h-40.569l-54-45H467c8.271,0,15,6.729,15,15V75z"/>
	</g>
</g>
<g>
	<g>
		<circle cx="91" cy="90" r="15"/>
	</g>
</g>
<g>
	<g>
		<path d="M324.32,318.519l-90-60C224.362,251.88,211,259.048,211,271v120c0,12.033,13.439,19.069,23.32,12.481l90-60
			C333.22,337.548,333.214,324.449,324.32,318.519z M241,362.972v-63.944L288.958,331L241,362.972z"/>
	</g>
</g>
<g>
	<g>
		<path d="M256,196c-74.439,0-135,60.561-135,135s60.561,135,135,135s135-60.561,135-135S330.439,196,256,196z M256,436
			c-57.897,0-105-47.103-105-105c0-57.897,47.103-105,105-105c57.897,0,105,47.103,105,105C361,388.897,313.897,436,256,436z"/>
	</g>
</g>
<g>
</g>
<g>
</g>
<g>
</g>
<g>
</g>
<g>
</g>
<g>
</g>
<g>
</g>
<g>
</g>
<g>
</g>
<g>
</g>
<g>
</g>
<g>
</g>
<g>
</g>
<g>
</g>
<g>
</g>
</svg>
