<?xml version="1.0" encoding="iso-8859-1"?>
<!-- Generator: Adobe Illustrator 19.0.0, SVG Export Plug-In . SVG Version: 6.00 Build 0)  -->
<svg version="1.1" id="Capa_1" xmlns="http://www.w3.org/2000/svg" xmlns:xlink="http://www.w3.org/1999/xlink" x="0px" y="0px"
	 viewBox="0 0 512 512" style="enable-background:new 0 0 512 512;" xml:space="preserve">
<g>
	<g>
		<path d="M467,120c-24.813,0-45,20.187-45,45c0,19.555,12.541,36.228,30,42.42v92.583l-31-0.001V255c0-24.813-20.187-45-45-45h-45
			v-30h45c8.284,0,15-6.716,15-15v-47.58c17.459-6.192,30-22.865,30-42.42c0-24.813-20.187-45-45-45s-45,20.187-45,45
			c0,19.555,12.541,36.228,30,42.42V150h-45c-8.284,0-15,6.716-15,15v45h-30V87.42c17.459-6.192,30-22.865,30-42.42
			c0-24.813-20.187-45-45-45s-45,20.187-45,45c0,19.555,12.541,36.228,30,42.42V210h-30v-45c0-8.284-6.716-15-15-15h-45v-32.58
			c17.459-6.192,30-22.865,30-42.42c0-24.813-20.187-45-45-45S91,50.187,91,75c0,19.555,12.541,36.228,30,42.42V165
			c0,8.284,6.716,15,15,15h45v30h-45c-24.813,0-45,20.187-45,45v45H60v-92.58c17.459-6.192,30-22.865,30-42.42
			c0-24.813-20.187-45-45-45S0,140.187,0,165c0,19.555,12.541,36.228,30,42.42V315c0,8.284,6.716,15,15,15h46v77
			c0,24.813,20.187,45,45,45h75v30h-45c-8.284,0-15,6.716-15,15s6.716,15,15,15h180c8.284,0,15-6.716,15-15s-6.716-15-15-15h-45v-30
			h75c24.813,0,45-20.187,45-45v-76.997l46,0.001c3.978,0,7.793-1.581,10.606-4.393c2.813-2.813,4.394-6.628,4.394-10.607V207.42
			c17.459-6.192,30-22.865,30-42.42C512,140.187,491.813,120,467,120z M376,60c8.271,0,15,6.729,15,15s-6.729,15-15,15
			s-15-6.729-15-15S367.729,60,376,60z M136,90c-8.271,0-15-6.729-15-15s6.729-15,15-15s15,6.729,15,15S144.271,90,136,90z M45,180
			c-8.271,0-15-6.729-15-15s6.729-15,15-15s15,6.729,15,15S53.271,180,45,180z M256,30c8.271,0,15,6.729,15,15s-6.729,15-15,15
			s-15-6.729-15-15S247.729,30,256,30z M271,482h-30v-30h30V482z M391,407c0,8.271-6.729,15-15,15H136c-8.271,0-15-6.729-15-15V255
			c0-8.271,6.729-15,15-15h240c8.271,0,15,6.729,15,15V407z M467,180c-8.271,0-15-6.729-15-15s6.729-15,15-15s15,6.729,15,15
			S475.271,180,467,180z"/>
	</g>
</g>
<g>
</g>
<g>
</g>
<g>
</g>
<g>
</g>
<g>
</g>
<g>
</g>
<g>
</g>
<g>
</g>
<g>
</g>
<g>
</g>
<g>
</g>
<g>
</g>
<g>
</g>
<g>
</g>
<g>
</g>
</svg>
