<?xml version="1.0" encoding="iso-8859-1"?>
<!-- Generator: Adobe Illustrator 19.0.0, SVG Export Plug-In . SVG Version: 6.00 Build 0)  -->
<svg version="1.1" id="Layer_1" xmlns="http://www.w3.org/2000/svg" xmlns:xlink="http://www.w3.org/1999/xlink" x="0px" y="0px"
	 viewBox="0 0 426.667 426.667" style="enable-background:new 0 0 426.667 426.667;" xml:space="preserve">
<g>
	<g>
		<g>
			<path d="M42.667,106.667h256V128h42.667V42.667C341.333,19.115,322.197,0,298.667,0h-256C19.136,0,0,19.115,0,42.667V384
				c0,23.552,19.136,42.667,42.667,42.667h170.667V384H42.667v-21.333h170.667V320H42.667V106.667z M42.667,42.667h256V64h-256
				V42.667z"/>
			<path d="M384,170.667h-85.333c-23.531,0-42.667,19.115-42.667,42.667V384c0,23.552,19.136,42.667,42.667,42.667H384
				c23.531,0,42.667-19.115,42.667-42.667V213.333C426.667,189.781,407.531,170.667,384,170.667z M384.021,384h-85.355v-21.333
				h85.355V384z M298.667,320V213.333H384v0L384.021,320H298.667z"/>
		</g>
	</g>
</g>
<g>
</g>
<g>
</g>
<g>
</g>
<g>
</g>
<g>
</g>
<g>
</g>
<g>
</g>
<g>
</g>
<g>
</g>
<g>
</g>
<g>
</g>
<g>
</g>
<g>
</g>
<g>
</g>
<g>
</g>
</svg>
