<?xml version="1.0" encoding="iso-8859-1"?>
<!-- Generator: Adobe Illustrator 19.0.0, SVG Export Plug-In . SVG Version: 6.00 Build 0)  -->
<svg version="1.1" id="Layer_1" xmlns="http://www.w3.org/2000/svg" xmlns:xlink="http://www.w3.org/1999/xlink" x="0px" y="0px"
	 viewBox="0 0 512 512" style="enable-background:new 0 0 512 512;" xml:space="preserve">
<g>
	<g>
		<path d="M497,482H389.491c-5.368-26.342-24.595-47.688-49.699-56.109c15.069-36.34,22.703-72.888,22.703-108.891
			c0-54.58-17.595-109.973-52.355-165H346c8.284,0,15-6.716,15-15s-6.716-15-15-15H211.926
			C175.692,82.379,138.432,53.769,121,41.248V15c0-8.284-6.716-15-15-15S91,6.716,91,15c0,16.025,0,390.674,0,408.509
			C61.656,429.49,38.49,452.656,32.509,482H15c-8.284,0-15,6.716-15,15s6.716,15,15,15h482c8.284,0,15-6.716,15-15
			S505.284,482,497,482z M274.122,152c38.734,55.524,58.372,111.002,58.372,165c0,34.509-7.978,69.789-23.696,105h-33.189
			c16.372-32.584,26.892-68.048,26.892-105c0-53.917-21.917-109.309-65.207-165H274.122z M223.543,391.9h32.867
			c-4.149,9.934-9.087,20.039-14.825,30.1H206.44C213.039,411.884,218.748,401.778,223.543,391.9z M223.498,242
			c-5.016-10.34-10.797-20.372-17.065-30h35.063c5.553,9.71,10.573,19.727,14.878,30H223.498z M235.43,362
			c3.101-10.162,5.192-20.269,6.248-30.1h30.139c-0.884,9.888-2.63,19.994-5.241,30.1H235.43z M241.672,302
			c-1.096-10.136-3.261-20.158-6.273-30h31.17c2.549,9.836,4.347,19.849,5.254,30H241.672z M198.308,152
			c8.198,9.458,16.23,19.483,23.802,30h-37.593c-8.789-10.862-17.854-20.921-26.635-30H198.308z M121,78.848
			c13.378,10.534,30.807,25.207,49.065,43.152H121V78.848z M121,157.73c7.134,6.779,15.319,14.971,23.8,24.27H121V157.73z M121,212
			h48.687c7.078,9.48,13.831,19.542,19.798,30H121V212z M121,272h82.696c3.671,9.869,6.359,19.914,7.74,30H121V272z M121,332h90.459
			c-1.306,9.718-3.86,19.726-7.651,30H121V332z M121,391.9h68.654c-5.588,9.802-12.198,19.909-19.817,30.1H121V391.9z M63.58,482
			c6.192-17.458,22.865-30,42.42-30c11.677,0,197.079,0,210,0c19.555,0,36.228,12.542,42.42,30H63.58z"/>
	</g>
</g>
<g>
	<g>
		<path d="M376,0c-24.813,0-45,20.187-45,45s20.187,45,45,45s45-20.187,45-45S400.813,0,376,0z M376,60c-8.271,0-15-6.729-15-15
			s6.729-15,15-15s15,6.729,15,15S384.271,60,376,60z"/>
	</g>
</g>
<g>
</g>
<g>
</g>
<g>
</g>
<g>
</g>
<g>
</g>
<g>
</g>
<g>
</g>
<g>
</g>
<g>
</g>
<g>
</g>
<g>
</g>
<g>
</g>
<g>
</g>
<g>
</g>
<g>
</g>
</svg>
