<?xml version="1.0" encoding="iso-8859-1"?>
<!-- Generator: Adobe Illustrator 19.0.0, SVG Export Plug-In . SVG Version: 6.00 Build 0)  -->
<svg version="1.1" id="Capa_1" xmlns="http://www.w3.org/2000/svg" xmlns:xlink="http://www.w3.org/1999/xlink" x="0px" y="0px"
	 viewBox="0 0 512 512" style="enable-background:new 0 0 512 512;" xml:space="preserve">
<g>
	<g>
		<path d="M507.606,213.262l-42.426-42.427c-2.813-2.813-6.628-4.394-10.606-4.394c-3.978,0-7.793,1.581-10.606,4.394L392,222.802
			V15c0-8.284-6.716-15-15-15H15C6.716,0,0,6.716,0,15v482c0,8.284,6.716,15,15,15h362c8.284,0,15-6.716,15-15V350.081
			l53.116-53.116c1.069,25.686-8.518,50.945-27.37,69.797l-16.206,16.206c-5.858,5.858-5.858,15.355,0,21.213
			c5.857,5.858,15.355,5.859,21.213,0l16.206-16.206c30.738-30.738,43.006-75.28,32.481-117.333l36.166-36.167
			C513.464,228.617,513.464,219.12,507.606,213.262z M362,482H30V30h332v222.802l-61.518,61.518
			c-22.383,22.382-41.159,48.412-55.465,76.68H137c-8.284,0-15,6.716-15,15s6.716,14.9,15,14.9h94.851
			c-1.274,3.397-2.492,6.915-3.639,10.356c-1.797,5.39-0.394,11.333,3.623,15.35c4.04,4.04,9.989,5.411,15.35,3.624
			c42.89-14.296,82.523-38.537,114.815-70.181V482z M342.908,356.745c-20.665,20.666-44.795,37.905-71.002,50.896
			c0.059-0.54,0.094-1.086,0.094-1.642c0-0.567-0.038-1.126-0.1-1.678c12.858-25.356,29.71-48.704,49.795-68.789l65.911-65.911
			l24.541-24.541l21.213,21.213L342.908,356.745z M454.574,245.081l-21.213-21.213l21.213-21.213l21.213,21.213L454.574,245.081z"/>
	</g>
</g>
<g>
	<g>
		<path d="M197,151c-24.813,0-45,20.187-45,45s20.187,45,45,45s45-20.187,45-45S221.813,151,197,151z M197,211
			c-8.271,0-15-6.729-15-15s6.729-15,15-15s15,6.729,15,15S205.271,211,197,211z"/>
	</g>
</g>
<g>
	<g>
		<path d="M317,181h-16.076c-2.552-17.763-9.56-34.106-19.862-47.85l11.397-11.397c5.858-5.858,5.858-15.355,0-21.213
			c-5.857-5.858-15.355-5.858-21.213,0l-11.397,11.397c-13.743-10.301-30.086-17.31-47.849-19.861V76c0-8.284-6.716-15-15-15
			s-15,6.716-15,15v16.076c-17.763,2.552-34.106,9.56-47.849,19.861l-11.397-11.397c-5.857-5.858-15.355-5.858-21.213,0
			c-5.858,5.858-5.858,15.355,0,21.213l11.397,11.397c-10.301,13.743-17.31,30.086-19.862,47.85H77c-8.284,0-15,6.716-15,15
			s6.716,15,15,15h16.076c2.552,17.763,9.56,34.106,19.862,47.85l-11.397,11.397c-5.858,5.857-5.859,15.355,0,21.213
			c5.857,5.858,15.355,5.859,21.213,0l11.397-11.397c13.743,10.301,30.086,17.31,47.849,19.861V316c0,8.284,6.716,15,15,15
			s15-6.716,15-15v-16.076c17.763-2.552,34.106-9.56,47.849-19.861l11.397,11.397c5.857,5.858,15.355,5.859,21.213,0
			c5.858-5.858,5.858-15.355,0-21.213l-11.397-11.397c10.301-13.743,17.31-30.086,19.862-47.85H317c8.284,0,15-6.716,15-15
			S325.284,181,317,181z M197,271c-41.355,0-75-33.645-75-75s33.645-75,75-75s75,33.645,75,75S238.355,271,197,271z"/>
	</g>
</g>
<g>
</g>
<g>
</g>
<g>
</g>
<g>
</g>
<g>
</g>
<g>
</g>
<g>
</g>
<g>
</g>
<g>
</g>
<g>
</g>
<g>
</g>
<g>
</g>
<g>
</g>
<g>
</g>
<g>
</g>
</svg>
