<?xml version="1.0" encoding="iso-8859-1"?>
<!-- Generator: Adobe Illustrator 19.0.0, SVG Export Plug-In . SVG Version: 6.00 Build 0)  -->
<svg version="1.1" id="Layer_1" xmlns="http://www.w3.org/2000/svg" xmlns:xlink="http://www.w3.org/1999/xlink" x="0px" y="0px"
	 viewBox="0 0 512 512" style="enable-background:new 0 0 512 512;" xml:space="preserve">
<g>
	<g>
		<path d="M492.804,93.869H381.177C398.74,52.512,368.171,6.45,323.244,6.45c-27.49,0-52.658,41.447-67.247,66.403
			C236.206,38.996,213.527,6.45,188.752,6.45c-44.892,0-75.514,46.025-57.934,87.419H19.196C8.595,93.869,0,102.464,0,113.065
			V227.59c0,10.601,8.595,19.196,19.196,19.196h34.809v239.568c0,10.601,8.595,19.196,19.196,19.196c4.585,0,357.319,0,365.597,0
			c10.601,0,19.196-8.595,19.196-19.196V246.786h34.809c10.601,0,19.196-8.595,19.196-19.196V113.065
			C512,102.464,503.405,93.869,492.804,93.869z M198.653,467.158H92.398V246.786h106.256V467.158z M198.655,208.394
			c-4.139,0-156.01,0-160.261,0v-76.132h133.114l-20.069,20.069c-7.497,7.497-7.497,19.65,0,27.147
			c7.495,7.497,19.65,7.498,27.147,0l20.069-20.069V208.394z M188.691,93.869c-31.48-0.079-32.718-47.031-1.482-48.978
			c11.426,6.973,29.918,37.449,36.597,48.978C219.875,93.869,208.506,93.869,188.691,93.869z M274.953,467.159h-37.907
			c0-17.023,0-325.918,0-334.894c13.734,0,24.169,0,37.907,0C274.953,136.439,274.953,416.463,274.953,467.159z M324.788,44.891
			c31.323,1.954,29.943,48.9-1.482,48.978c-20.774,0-14.247,0-35.116,0C294.923,82.241,313.386,51.849,324.788,44.891z
			 M419.603,467.158H313.347V246.786h106.256V467.158z M473.608,208.394c-4.249,0-156.122,0-160.261,0v-48.985l20.069,20.069
			c7.495,7.497,19.65,7.497,27.147,0c7.497-7.495,7.497-19.65,0-27.147l-20.069-20.069h133.114V208.394z"/>
	</g>
</g>
<g>
</g>
<g>
</g>
<g>
</g>
<g>
</g>
<g>
</g>
<g>
</g>
<g>
</g>
<g>
</g>
<g>
</g>
<g>
</g>
<g>
</g>
<g>
</g>
<g>
</g>
<g>
</g>
<g>
</g>
</svg>
