<?xml version="1.0" encoding="iso-8859-1"?>
<!-- Generator: Adobe Illustrator 19.0.0, SVG Export Plug-In . SVG Version: 6.00 Build 0)  -->
<svg version="1.1" id="Capa_1" xmlns="http://www.w3.org/2000/svg" xmlns:xlink="http://www.w3.org/1999/xlink" x="0px" y="0px"
	 viewBox="0 0 512 512" style="enable-background:new 0 0 512 512;" xml:space="preserve">
<g>
	<g>
		<path d="M497,482h-45v-33.58c17.459-6.192,30-22.865,30-42.42c0-24.813-20.187-45-45-45s-45,20.187-45,45
			c0,19.555,12.541,36.228,30,42.42V482H147.419c0.096-0.271,0.197-0.538,0.289-0.812l29.987-90.96
			c4.014-12.065,2.729-25.309-3.524-36.373l-48.885-90.691l13.254-29.83l31.483,52.835c9.811,18.982,30.976,27.779,50.311,23.16
			l66.231,133.344c2.5,5.022,7.703,8.231,13.445,8.231c0.02,0,0.04-0.003,0.06-0.003H346c8.284,0,15-6.616,15-14.9s-6.716-15-15-15
			h-36.702l-63.619-128.084c10.143-13.243,12.521-31.646,4.573-47.542c-0.097-0.194-0.199-0.387-0.304-0.577l-70.336-126.605
			C205.656,111.649,225,88.045,225,60c0-33.084-26.916-60-60-60s-60,26.916-60,60c0,11.314,3.151,21.906,8.618,30.948
			c-8.597,4.655-15.646,12.056-19.732,21.272L33.887,247.218c-5.775,12.989-5.044,28.09,1.949,40.438l50.187,92.993L62.309,451.76
			c-3.29,9.86-3.093,20.433,0.478,30.24H15c-8.284,0-15,6.716-15,15s6.716,15,15,15c11.44,0,466.021,0,482,0c8.284,0,15-6.716,15-15
			S505.284,482,497,482z M165,30c16.542,0,30,13.458,30,30s-13.458,30-30,30s-30-13.458-30-30S148.458,30,165,30z M100.255,481.233
			c-7.903-2.637-12.095-12.163-9.488-19.98l25.767-77.271c1.311-3.929,0.938-8.225-1.029-11.869l-53.35-98.854
			c-0.059-0.11-0.12-0.219-0.182-0.328c-2.357-4.117-2.609-9.173-0.673-13.526l60.005-135.013c2.334-5.264,7.573-8.75,13.347-8.881
			c0.116-0.002,0.231-0.006,0.347-0.012c0.262-0.012,0.518-0.018,0.771-0.018c6.985,0,10.731,4.485,12.657,8.324
			c0.095,0.189,0.193,0.376,0.296,0.562l74.814,134.666c3.516,7.354,0.491,16.228-6.87,19.909c-7.402,3.729-16.38,0.674-20.09-6.736
			c-0.382-0.764,2.288,3.761-47.095-79.114c-2.87-4.816-8.188-7.634-13.78-7.295c-5.595,0.334-10.538,3.76-12.813,8.882
			L94.881,257.71c-1.886,4.243-1.7,9.121,0.503,13.208l52.456,97.316c0.059,0.108,0.118,0.215,0.179,0.322
			c2.116,3.704,2.557,8.151,1.197,12.239l-29.985,90.953C116.569,479.736,107.977,483.818,100.255,481.233z M437,421
			c-8.271,0-15-6.729-15-15s6.729-15,15-15s15,6.729,15,15S445.271,421,437,421z"/>
	</g>
</g>
<g>
</g>
<g>
</g>
<g>
</g>
<g>
</g>
<g>
</g>
<g>
</g>
<g>
</g>
<g>
</g>
<g>
</g>
<g>
</g>
<g>
</g>
<g>
</g>
<g>
</g>
<g>
</g>
<g>
</g>
</svg>
