<?xml version="1.0" encoding="iso-8859-1"?>
<!-- Generator: Adobe Illustrator 19.0.0, SVG Export Plug-In . SVG Version: 6.00 Build 0)  -->
<svg version="1.1" id="Layer_1" xmlns="http://www.w3.org/2000/svg" xmlns:xlink="http://www.w3.org/1999/xlink" x="0px" y="0px"
	 viewBox="0 0 469.333 469.333" style="enable-background:new 0 0 469.333 469.333;" class="gicon" fill="#0d2032" xml:space="preserve">
<g>
	<g>
		<g>
			<path d="M413.248,385.259c14.72-13.675,24.085-32.981,24.085-54.592c0-41.173-33.493-74.667-74.667-74.667
				S288,289.493,288,330.667c0,21.611,9.365,40.917,24.085,54.592C280.555,396.651,256,418.581,256,448h42.667
				c0-12.757,30.144-28.949,64-28.949c33.856,0,64,16.213,64,28.949h42.667C469.333,418.56,444.779,396.651,413.248,385.259z
				 M362.667,362.667c-17.643,0-32-14.357-32-32c0-17.643,14.357-32,32-32c17.643,0,32,14.357,32,32
				C394.667,348.309,380.309,362.667,362.667,362.667z"/>
			<path d="M157.248,385.259c14.72-13.675,24.085-32.981,24.085-54.592c0-41.173-33.493-74.667-74.667-74.667
				C65.493,256,32,289.493,32,330.667c0,21.611,9.365,40.917,24.085,54.592C24.555,396.651,0,418.56,0,448h42.667
				c0-12.757,30.144-28.949,64-28.949c33.856,0,64,16.213,64,28.949h42.667C213.333,418.56,188.779,396.651,157.248,385.259z
				 M106.667,362.667c-17.643,0-32-14.357-32-32c0-17.643,14.357-32,32-32c17.643,0,32,14.357,32,32
				C138.667,348.309,124.309,362.667,106.667,362.667z"/>
			<path d="M298.667,213.333h42.667c0-29.44-24.555-51.349-56.085-62.741c14.72-13.675,24.085-32.981,24.085-54.592
				c0-41.173-33.493-74.667-74.667-74.667S160,54.827,160,96c0,21.611,9.365,40.917,24.085,54.592
				C152.555,161.984,128,183.893,128,213.333h42.667c0-12.757,30.144-28.949,64-28.949
				C268.523,184.384,298.667,200.576,298.667,213.333z M234.667,128c-17.643,0-32-14.357-32-32c0-17.643,14.357-32,32-32
				c17.643,0,32,14.357,32,32C266.667,113.643,252.309,128,234.667,128z"/>
		</g>
	</g>
</g>
</svg>
