<?xml version="1.0" encoding="iso-8859-1"?>
<!-- Generator: Adobe Illustrator 19.0.0, SVG Export Plug-In . SVG Version: 6.00 Build 0)  -->
<svg version="1.1" id="Layer_1" xmlns="http://www.w3.org/2000/svg" xmlns:xlink="http://www.w3.org/1999/xlink" x="0px" y="0px"
	 viewBox="0 0 426.667 426.667" style="enable-background:new 0 0 426.667 426.667;" xml:space="preserve">
<g>
	<g>
		<g>
			<path d="M42.667,42.667h128V0h-128C19.136,0,0,19.136,0,42.667v128h42.667V42.667z"/>
			<path d="M384,0H256v42.667h128v128h42.667v-128C426.667,19.136,407.531,0,384,0z"/>
			<path d="M42.667,256H0v128c0,23.531,19.136,42.667,42.667,42.667h128V384h-128V256z"/>
			<path d="M384,384H256v42.667h128c23.531,0,42.667-19.136,42.667-42.667V256H384V384z"/>
			<path d="M213.333,85.333c-47.061,0-85.333,38.272-85.333,85.333V192h-21.333v149.333H320V192h-21.333v-21.333
				C298.667,123.605,260.395,85.333,213.333,85.333z M170.667,170.667c0-23.509,19.136-42.667,42.667-42.667
				S256,147.157,256,170.667V192h-85.333V170.667z M277.333,298.667h-128v-64h128V298.667z"/>
		</g>
	</g>
</g>
<g>
</g>
<g>
</g>
<g>
</g>
<g>
</g>
<g>
</g>
<g>
</g>
<g>
</g>
<g>
</g>
<g>
</g>
<g>
</g>
<g>
</g>
<g>
</g>
<g>
</g>
<g>
</g>
<g>
</g>
</svg>
