<?xml version="1.0" encoding="iso-8859-1"?>
<!-- Generator: Adobe Illustrator 19.0.0, SVG Export Plug-In . SVG Version: 6.00 Build 0)  -->
<svg version="1.1" id="Layer_1" xmlns="http://www.w3.org/2000/svg" xmlns:xlink="http://www.w3.org/1999/xlink" x="0px" y="0px"
	 viewBox="0 0 426.667 426.667" style="enable-background:new 0 0 426.667 426.667;" xml:space="preserve">
<g>
	<g>
		<g>
			<polygon points="240.917,231.541 311.168,301.792 240.917,372.043 271.083,402.208 371.499,301.792 271.083,201.376 			"/>
			<path d="M384,24.459H42.667C19.115,24.459,0,43.573,0,67.125v213.333c0,23.552,19.115,42.667,42.667,42.667h140.501
				l-48.917,48.917l30.165,30.165l100.416-100.416L164.416,201.376l-30.165,30.165l48.917,48.917H42.667V67.125H384v85.333h42.667
				V67.125C426.667,43.573,407.552,24.459,384,24.459z"/>
		</g>
	</g>
</g>
<g>
</g>
<g>
</g>
<g>
</g>
<g>
</g>
<g>
</g>
<g>
</g>
<g>
</g>
<g>
</g>
<g>
</g>
<g>
</g>
<g>
</g>
<g>
</g>
<g>
</g>
<g>
</g>
<g>
</g>
</svg>
