<?xml version="1.0" encoding="iso-8859-1"?>
<!-- Generator: Adobe Illustrator 19.0.0, SVG Export Plug-In . SVG Version: 6.00 Build 0)  -->
<svg version="1.1" id="Capa_1" xmlns="http://www.w3.org/2000/svg" xmlns:xlink="http://www.w3.org/1999/xlink" x="0px" y="0px"
	 viewBox="0 0 511.999 511.999" style="enable-background:new 0 0 511.999 511.999;" xml:space="preserve">
<g>
	<g>
		<path d="M294.515,251.18c5.795-7.901,9.229-17.638,9.229-28.166c0-26.317-21.411-47.729-47.729-47.729
			c-26.318,0-47.729,21.411-47.729,47.729c0,10.527,3.432,20.265,9.229,28.166c-24.623,13.613-41.341,39.846-41.341,69.916
			c0,8.143,6.601,14.744,14.744,14.744h130.195c8.143,0,14.744-6.601,14.744-14.744C335.856,291.025,319.138,264.793,294.515,251.18
			z M256.015,204.774c10.058,0,18.241,8.183,18.241,18.241c0,10.058-8.183,18.242-18.241,18.242
			c-10.058,0-18.241-8.184-18.241-18.242C237.774,212.958,245.956,204.774,256.015,204.774z M207.862,306.353
			c6.319-20.593,25.515-35.609,48.151-35.609c22.637,0,41.833,15.015,48.152,35.609H207.862z"/>
	</g>
</g>
<g>
	<g>
		<path d="M256.015,0c-26.318,0-47.729,21.411-47.729,47.73c0,21.172,13.862,39.16,32.985,45.386v26.804
			c0,8.143,6.601,14.744,14.744,14.744c8.143,0,14.744-6.601,14.744-14.744V93.116c19.122-6.227,32.985-24.214,32.985-45.386
			C303.743,21.411,282.332,0,256.015,0z M256.015,65.971c-10.058,0-18.241-8.183-18.241-18.241c0-10.059,8.183-18.242,18.241-18.242
			c10.058,0,18.241,8.183,18.241,18.242C274.256,57.787,266.073,65.971,256.015,65.971z"/>
	</g>
</g>
<g>
	<g>
		<path d="M145.538,175.191l-23.198-13.392c1.558-7.284,1.392-14.883-0.592-22.287c-3.3-12.314-11.197-22.607-22.238-28.98
			c-11.04-6.375-23.902-8.07-36.218-4.769C50.979,109.061,40.687,116.96,34.312,128c-6.374,11.04-8.068,23.903-4.768,36.218
			c3.3,12.315,11.197,22.608,22.239,28.981c7.354,4.246,15.516,6.415,23.787,6.415c4.145,0,8.319-0.546,12.431-1.646
			c7.403-1.984,14.068-5.64,19.597-10.632l23.197,13.392c2.323,1.341,4.857,1.979,7.358,1.979c5.095,0,10.052-2.645,12.783-7.375
			C155.007,188.28,152.591,179.262,145.538,175.191z M91.445,160.985c-2.437,4.22-6.37,7.238-11.078,8.499
			c-4.706,1.261-9.622,0.613-13.841-1.822c-4.22-2.437-7.238-6.369-8.498-11.077c-1.261-4.707-0.614-9.623,1.822-13.842
			c2.437-4.22,6.369-7.237,11.077-8.498c1.572-0.421,3.166-0.629,4.75-0.629c3.16,0,6.28,0.829,9.091,2.451
			c4.22,2.437,7.238,6.369,8.499,11.077C94.529,151.85,93.882,156.765,91.445,160.985z"/>
	</g>
</g>
<g>
	<g>
		<path d="M150.936,316.67c-4.072-7.054-13.088-9.472-20.141-5.398l-23.197,13.392c-5.53-4.991-12.194-8.648-19.597-10.632
			c-12.314-3.298-25.177-1.605-36.218,4.769C28.991,331.96,21.154,361.209,34.313,384c6.374,11.04,16.666,18.939,28.98,22.238
			c4.113,1.102,8.285,1.647,12.431,1.647c8.27,0,16.432-2.169,23.787-6.416c11.04-6.373,18.939-16.666,22.239-28.98
			c1.984-7.403,2.15-15.002,0.592-22.287l23.197-13.392C152.59,332.739,155.006,323.722,150.936,316.67z M93.266,364.856
			c-1.261,4.706-4.28,8.64-8.499,11.077c-4.22,2.437-9.135,3.081-13.841,1.822c-4.706-1.261-8.64-4.28-11.076-8.498
			c-5.03-8.711-2.034-19.888,6.677-24.919c4.219-2.436,9.134-3.084,13.841-1.822c4.705,1.26,8.638,4.278,11.074,8.495
			c0.001,0.001,0.001,0.002,0.002,0.004s0.002,0.003,0.003,0.004C93.881,355.238,94.527,360.151,93.266,364.856z"/>
	</g>
</g>
<g>
	<g>
		<path d="M270.759,418.883v-26.804c0-8.143-6.601-14.744-14.744-14.744c-8.143,0-14.744,6.601-14.744,14.744v26.804
			c-19.122,6.227-32.985,24.214-32.985,45.386c0,26.318,21.411,47.73,47.729,47.73c26.318,0,47.729-21.411,47.729-47.73
			C303.743,443.098,289.88,425.111,270.759,418.883z M256.015,482.512c-10.058,0-18.241-8.183-18.241-18.242
			c0-10.057,8.183-18.241,18.241-18.241c10.058,0,18.241,8.183,18.241,18.241C274.256,474.329,266.073,482.512,256.015,482.512z"/>
	</g>
</g>
<g>
	<g>
		<path d="M460.246,318.801c-11.041-6.374-23.904-8.067-36.218-4.769c-7.403,1.984-14.068,5.64-19.597,10.632l-23.197-13.392
			c-7.054-4.073-16.07-1.655-20.141,5.396c-4.071,7.052-1.655,16.07,5.397,20.14l23.198,13.392
			c-1.558,7.284-1.393,14.883,0.592,22.287c3.3,12.314,11.197,22.606,22.238,28.98c7.498,4.329,15.692,6.386,23.785,6.385
			c16.506,0,32.584-8.56,41.414-23.855C490.875,361.208,483.038,331.96,460.246,318.801z M452.179,369.256
			c-5.029,8.71-16.206,11.705-24.918,6.676c-4.22-2.437-7.238-6.369-8.498-11.077c-1.26-4.704-0.614-9.619,1.82-13.838
			c0.001-0.002,0.002-0.003,0.003-0.004s0.001-0.002,0.002-0.004c2.437-4.218,6.368-7.235,11.074-8.495
			c1.572-0.422,3.167-0.63,4.75-0.63c3.16,0,6.28,0.83,9.09,2.451C454.213,349.368,457.209,360.546,452.179,369.256z"/>
	</g>
</g>
<g>
	<g>
		<path d="M477.717,128.001c-13.16-22.793-42.408-30.627-65.199-17.469c-11.04,6.374-18.938,16.666-22.239,28.98
			c-1.984,7.403-2.15,15.002-0.592,22.287l-23.198,13.392c-7.052,4.071-9.468,13.088-5.397,20.14
			c2.733,4.73,7.688,7.375,12.785,7.375c2.501,0,5.036-0.637,7.358-1.979l23.197-13.392c5.53,4.991,12.194,8.648,19.598,10.632
			c4.112,1.101,8.285,1.646,12.431,1.646c8.27,0,16.432-2.169,23.787-6.415C483.039,180.042,490.876,150.793,477.717,128.001z
			 M445.503,167.662c-4.22,2.436-9.135,3.083-13.841,1.822c-4.705-1.26-8.638-4.278-11.074-8.495
			c-0.001-0.001-0.001-0.002-0.002-0.004c-0.001-0.001-0.002-0.002-0.002-0.004c-2.436-4.219-3.081-9.132-1.821-13.838
			c1.261-4.706,4.28-8.64,8.499-11.077c2.865-1.655,5.997-2.44,9.09-2.44c6.308,0,12.453,3.271,15.827,9.116
			C457.209,151.453,454.214,162.632,445.503,167.662z"/>
	</g>
</g>
<g>
</g>
<g>
</g>
<g>
</g>
<g>
</g>
<g>
</g>
<g>
</g>
<g>
</g>
<g>
</g>
<g>
</g>
<g>
</g>
<g>
</g>
<g>
</g>
<g>
</g>
<g>
</g>
<g>
</g>
</svg>
