<?xml version="1.0" encoding="iso-8859-1"?>
<!-- Generator: Adobe Illustrator 19.0.0, SVG Export Plug-In . SVG Version: 6.00 Build 0)  -->
<svg version="1.1" id="Layer_1" xmlns="http://www.w3.org/2000/svg" xmlns:xlink="http://www.w3.org/1999/xlink" x="0px" y="0px"
	 viewBox="0 0 426.667 426.667" style="enable-background:new 0 0 426.667 426.667;" class="gicon" fill="#0d2032" xml:space="preserve">
<g>
	<g>
		<g>
			<path d="M213.333,128c-58.816,0-106.667,47.851-106.667,106.667c0,58.837,47.851,106.667,106.667,106.667
				S320,293.504,320,234.667S272.149,128,213.333,128z M213.333,298.667c-35.285,0-64-28.715-64-64s28.715-64,64-64s64,28.715,64,64
				S248.619,298.667,213.333,298.667z"/>
			<path d="M384,85.333h-73.92l-29.995-44.992c-7.936-11.904-21.205-19.008-35.499-19.008H182.08
				c-14.293,0-27.563,7.104-35.499,19.008l-29.995,44.992h-73.92C19.136,85.333,0,104.469,0,128v234.667
				c0,23.531,19.136,42.667,42.667,42.667H384c23.531,0,42.667-19.136,42.667-42.667V128C426.667,104.469,407.531,85.333,384,85.333
				z M42.667,362.667V128h96.747l42.667-64h62.507l42.667,64H384l0.021,234.667H42.667z"/>
		</g>
	</g>
</g>
</svg>
