<?xml version="1.0" encoding="iso-8859-1"?>
<!-- Generator: Adobe Illustrator 19.0.0, SVG Export Plug-In . SVG Version: 6.00 Build 0)  -->
<svg version="1.1" id="Layer_1" xmlns="http://www.w3.org/2000/svg" xmlns:xlink="http://www.w3.org/1999/xlink" x="0px" y="0px"
	 viewBox="0 0 426.667 426.667" style="enable-background:new 0 0 426.667 426.667;" xml:space="preserve">
<g>
	<g>
		<g>
			<path d="M426.667,96V32c0-11.776-9.536-21.333-21.333-21.333h-384C9.557,10.667,0,20.224,0,32v64
				c0,11.776,9.557,21.333,21.333,21.333v213.333H0v42.667h192V416h42.667v-42.667h192v-42.667h-21.333V117.333
				C417.131,117.333,426.667,107.776,426.667,96z M362.667,330.667H64V117.333h298.667V330.667z M384,74.667H42.667V53.333H384
				V74.667z"/>
			<path d="M149.333,288c35.349,0,64-28.651,64-64h-64v-64c-35.328,0-64,28.672-64,64C85.333,259.349,114.005,288,149.333,288z"/>
			<path d="M170.667,138.667v64h64C234.667,167.339,206.016,138.667,170.667,138.667z"/>
			<rect x="277.333" y="138.667" width="64" height="42.667"/>
			<rect x="256" y="202.667" width="85.333" height="42.667"/>
			<rect x="213.333" y="266.667" width="128" height="42.667"/>
		</g>
	</g>
</g>
<g>
</g>
<g>
</g>
<g>
</g>
<g>
</g>
<g>
</g>
<g>
</g>
<g>
</g>
<g>
</g>
<g>
</g>
<g>
</g>
<g>
</g>
<g>
</g>
<g>
</g>
<g>
</g>
<g>
</g>
</svg>
