<?xml version="1.0" encoding="iso-8859-1"?>
<!-- Generator: Adobe Illustrator 19.0.0, SVG Export Plug-In . SVG Version: 6.00 Build 0)  -->
<svg version="1.1" id="Capa_1" xmlns="http://www.w3.org/2000/svg" xmlns:xlink="http://www.w3.org/1999/xlink" x="0px" y="0px"
	 viewBox="0 0 512 512" style="enable-background:new 0 0 512 512;" xml:space="preserve">
<g>
	<g>
		<path d="M376,301c-8.271,0-15-6.729-15-15c0-6.042,3.595-11.468,9.159-13.825c6.716-2.844,14.755-0.417,22.059,6.659
			c5.95,5.764,15.446,5.614,21.21-0.335c5.765-5.95,5.614-15.446-0.335-21.21c-6.772-6.561-14.3-11.198-22.093-13.815V226
			c0-8.284-6.716-15-15-15s-15,6.716-15,15v17.571c-0.851,0.303-1.699,0.623-2.54,0.979C341.779,251.615,331,267.885,331,286
			c0,24.813,20.187,45,45,45c8.271,0,15,6.729,15,15c0,6.286-3.965,11.954-9.866,14.103c-7.705,2.805-16.674-1-24.606-10.445
			c-5.328-6.343-14.789-7.167-21.133-1.839s-7.167,14.79-1.839,21.133c8.109,9.655,17.548,16.276,27.445,19.608V406
			c0,8.284,6.716,15,15,15S391,414.284,391,406v-17.572c0.134-0.047,0.268-0.088,0.401-0.137C409.105,381.843,421,364.847,421,346
			C421,321.187,400.813,301,376,301z"/>
	</g>
</g>
<g>
	<g>
		<path d="M376,181c-27.732,0-53.534,8.409-75,22.806V120h45c13.862,0,20.322-17.337,9.762-26.389l-105-90
			c-5.617-4.815-13.906-4.815-19.523,0l-105,90c-4.766,4.085-6.484,10.706-4.307,16.593C124.109,116.091,129.723,120,136,120h45v91
			h-75c-8.284,0-15,6.716-15,15v105H15c-8.284,0-15,6.716-15,15v151c0,8.284,6.716,15,15,15c10.078,0,260.982,0,271,0
			c8.284,0,15-6.716,15-15v-68.806C322.466,442.591,348.268,451,376,451c74.991,0,136-60.561,136-135S450.991,181,376,181z M91,482
			H30V361h61V482z M181,482h-60V241h60V482z M271,482h-60.2V105c0-8.278-6.517-15-14.8-15h-19.452L241,34.757L305.451,90H286
			c-8.284,0-15,6.716-15,15v126.251c-18.751,23.186-30,52.676-30,84.749s11.249,61.563,30,84.749V482z M376,421
			c-57.897,0-105-47.103-105-105c0-57.897,47.103-105,105-105c58.449,0,106,47.103,106,105C482,373.897,434.449,421,376,421z"/>
	</g>
</g>
<g>
</g>
<g>
</g>
<g>
</g>
<g>
</g>
<g>
</g>
<g>
</g>
<g>
</g>
<g>
</g>
<g>
</g>
<g>
</g>
<g>
</g>
<g>
</g>
<g>
</g>
<g>
</g>
<g>
</g>
</svg>
