<?xml version="1.0" encoding="iso-8859-1"?>
<!-- Generator: Adobe Illustrator 19.0.0, SVG Export Plug-In . SVG Version: 6.00 Build 0)  -->
<svg version="1.1" id="Layer_1" xmlns="http://www.w3.org/2000/svg" xmlns:xlink="http://www.w3.org/1999/xlink" x="0px" y="0px"
	 viewBox="0 0 512 512" style="enable-background:new 0 0 512 512;" xml:space="preserve">
<g>
	<g>
		<path d="M473.043,300.522h-2.131c1.395-5.409,2.131-11.011,2.131-16.696c0-36.824-29.959-66.783-66.783-66.783
			c-5.763,0-11.357,0.735-16.696,2.114v-35.505C389.565,82.386,307.179,0,205.913,0S22.261,82.386,22.261,183.652v133.565
			c0,9.22,7.475,16.696,16.696,16.696h85.635c8.869,8.595,19.149,15.856,30.565,21.374c-1.923,6.575-7.796,11.528-14.929,11.983
			c-0.363,0.023-0.729,0.034-1.097,0.034h-33.391c-46.03,0-83.478,37.448-83.478,83.478v44.522c0,9.22,7.475,16.696,16.696,16.696
			c7.03,0,378.968,0,400.696,0c9.22,0,16.696-7.475,16.696-16.696v-94.609h16.696c9.22,0,16.696-7.475,16.696-16.696v-66.783
			C489.739,307.997,482.264,300.522,473.043,300.522z M406.26,250.435c18.412,0,33.392,14.979,33.392,33.391
			c0,5.915-1.567,11.658-4.479,16.696h-57.826c-2.912-5.038-4.479-10.781-4.479-16.696
			C372.868,265.414,387.848,250.435,406.26,250.435z M100.51,300.522H55.652v-116.87c0-82.854,67.407-150.261,150.261-150.261
			s150.261,67.407,150.261,150.261v56.072c-10.379,11.774-16.696,27.209-16.696,44.102c0,5.684,0.737,11.286,2.131,16.696h-2.131
			h-28.162c7.385-15.346,11.467-32.39,11.467-50.087v-66.783c0-9.22-7.475-16.696-16.696-16.696h-33.391
			c-27.618,0-50.087-22.469-50.087-50.087c0-9.22-7.475-16.696-16.696-16.696c-9.22,0-16.696,7.475-16.696,16.696
			c0,27.618-22.469,50.087-50.087,50.087h-33.391c-9.22,0-16.696,7.475-16.696,16.696v66.783
			C89.043,268.133,93.125,285.176,100.51,300.522z M322.783,333.913v33.391h-50.087c-7.583,0-14.001-5.081-16.029-12.018
			c11.418-5.517,21.698-12.779,30.566-21.374H322.783z M55.652,478.609v-27.826c0-27.618,22.469-50.087,50.087-50.087h23.938
			l46.748,77.913H55.652z M164.474,393.789c14.836-8.75,24.743-24.905,24.743-43.181v-6.135c0-7.066-4.447-13.365-11.104-15.732
			c-33.303-11.837-55.679-43.307-55.679-78.307v-50.087h16.696c27.277,0,51.539-13.149,66.783-33.444
			c15.243,20.294,39.505,33.444,66.783,33.444h16.696v50.087c0,35-22.375,66.47-55.679,78.307
			c-6.657,2.366-11.104,8.666-11.104,15.732v6.135c0,18.376,9.953,34.462,24.745,43.177l-41.441,69.069L164.474,393.789z
			 M356.174,478.609H235.401l46.748-77.913c9.015,0,66.117,0,74.025,0C356.174,418.041,356.174,471.063,356.174,478.609z
			 M422.957,478.609h-33.391c0-7.58,0-60.646,0-77.913h33.391V478.609z M456.348,367.304c-10.139,0-83.847,0-100.174,0v-33.391
			h100.174V367.304z"/>
	</g>
</g>
<g>
</g>
<g>
</g>
<g>
</g>
<g>
</g>
<g>
</g>
<g>
</g>
<g>
</g>
<g>
</g>
<g>
</g>
<g>
</g>
<g>
</g>
<g>
</g>
<g>
</g>
<g>
</g>
<g>
</g>
</svg>
