<?xml version="1.0" encoding="iso-8859-1"?>
<!-- Generator: Adobe Illustrator 19.0.0, SVG Export Plug-In . SVG Version: 6.00 Build 0)  -->
<svg version="1.1" id="Capa_1" xmlns="http://www.w3.org/2000/svg" xmlns:xlink="http://www.w3.org/1999/xlink" x="0px" y="0px"
	 viewBox="0 0 512 512" style="enable-background:new 0 0 512 512;" class="gicon" fill="#0d2032" xml:space="preserve">
<g>
	<g>
		<path d="M399.032,292.967c-29.24-29.243-76.823-29.243-106.065,0c-29.242,29.243-29.242,76.823,0,106.066
			c29.282,29.28,76.784,29.281,106.065,0C428.313,369.753,428.315,322.248,399.032,292.967z M377.819,377.819
			c-17.557,17.557-46.082,17.556-63.64,0c-17.545-17.545-17.545-46.094,0-63.64c17.549-17.548,46.097-17.543,63.64,0
			C395.377,331.738,395.375,360.264,377.819,377.819z"/>
	</g>
</g>
<g>
	<g>
		<path d="M507.606,305.393C504.794,302.58,500.979,301,497,301h-23.691c-1.587-4.498-3.41-8.905-5.465-13.205l16.042-16.041
			c5.853-5.852,5.858-15.356,0-21.213l-42.427-42.427c-5.853-5.854-15.357-5.857-21.213,0l-16.041,16.041
			c-4.3-2.054-8.707-3.878-13.205-5.465V196c0-8.284-6.716-15-15-15h-60c-8.284,0-15,6.716-15,15V60c0-41.224-77.756-60-150-60
			C113.324,0,77.576,4.949,50.341,13.936C8.733,27.664,0,46.563,0,60v270c0,13.437,8.733,32.336,50.341,46.064
			C77.576,385.051,113.324,390,151,390c12.429,0,24.678-0.546,36.552-1.613c2.473,1.687,5.411,2.613,8.448,2.613h22.69
			c1.587,4.498,3.411,8.905,5.465,13.206l-16.041,16.042c-5.858,5.858-5.858,15.355,0,21.213l42.427,42.426
			c5.852,5.854,15.356,5.857,21.213,0l16.041-16.041c4.3,2.054,8.707,3.878,13.205,5.465V497c0,8.284,6.716,15,15,15h60
			c8.284,0,15-6.716,15-15v-23.691c4.498-1.587,8.905-3.411,13.205-5.465l16.041,16.042c5.852,5.853,15.357,5.858,21.213,0
			l42.427-42.426c5.853-5.852,5.858-15.355,0-21.213l-16.041-16.041c2.054-4.3,3.878-8.708,5.465-13.205H497c8.284,0,15-6.716,15-15
			v-60C512,312.022,510.42,308.206,507.606,305.393z M59.74,42.425C83.672,34.529,116.935,30,151,30
			c34.49,0,66.707,4.407,90.716,12.41C265.909,50.475,271,58.712,271,60s-5.091,9.525-29.284,17.59C217.707,85.593,185.49,90,151,90
			c-34.065,0-67.328-4.529-91.26-12.425C35.17,69.468,30,61.277,30,60S35.17,50.532,59.74,42.425z M30,97.738
			c5.703,2.914,12.423,5.714,20.341,8.326C77.576,115.051,113.324,120,151,120c44.345,0,90.759-7.077,120-22.075V150
			c0,1.288-5.091,9.525-29.284,17.59C217.707,175.593,185.49,180,151,180c-34.065,0-67.328-4.529-91.26-12.425
			C35.17,159.468,30,151.277,30,150V97.738z M30,187.738c5.703,2.914,12.423,5.714,20.341,8.326C77.576,205.051,113.324,210,151,210
			c44.345,0,90.759-7.077,120-22.075v19.506c-2.723-2.377-6.215-3.711-9.853-3.711c-3.979,0-7.794,1.58-10.606,4.393l-42.427,42.428
			c-2.813,2.813-4.394,6.628-4.394,10.607c0,1.72,0.312,3.405,0.875,4.996C187.9,268.674,169.648,270,151,270
			c-34.065,0-67.328-4.529-91.26-12.425C35.17,249.468,30,241.277,30,240V187.738z M181,316v42.831
			c-9.772,0.771-19.811,1.169-30,1.169c-34.065,0-67.329-4.529-91.26-12.425C35.17,339.468,30,331.277,30,330v-52.262
			c5.703,2.914,12.423,5.714,20.341,8.326C77.576,295.051,113.324,300,151,300c24.805,0,49.1-2.188,70.529-6.333
			c-1.015,2.417-1.967,4.86-2.839,7.333H196C187.716,301,181,307.716,181,316z M482,361h-19.79c-6.846,0-12.822,4.634-14.527,11.264
			c-2.449,9.522-6.219,18.631-11.205,27.074c-3.481,5.894-2.531,13.396,2.309,18.235l13.279,13.279l-21.213,21.213l-13.279-13.279
			c-4.839-4.84-12.341-5.79-18.234-2.309c-8.442,4.985-17.552,8.755-27.075,11.205c-6.629,1.705-11.264,7.682-11.264,14.527V482h-30
			v-19.79c0-6.845-4.635-12.822-11.264-14.527c-9.523-2.449-18.633-6.219-27.075-11.205c-5.893-3.48-13.395-2.531-18.234,2.309
			l-13.279,13.279l-21.214-21.213l13.279-13.28c4.84-4.839,5.79-12.341,2.31-18.234c-4.986-8.444-8.756-17.553-11.205-27.076
			c-1.705-6.63-7.683-11.264-14.527-11.264L211,361v-30h18.79c6.846,0,12.823-4.635,14.527-11.265
			c2.447-9.519,6.218-18.628,11.205-27.073c3.481-5.893,2.531-13.396-2.309-18.235l-13.28-13.28l21.214-21.213l13.279,13.279
			c4.839,4.839,12.34,5.79,18.234,2.309c8.442-4.986,17.552-8.756,27.075-11.205c6.629-1.705,11.264-7.682,11.264-14.527V211h30
			v18.79c0,6.845,4.635,12.823,11.264,14.527c9.522,2.449,18.632,6.219,27.075,11.205c5.892,3.48,13.395,2.531,18.234-2.309
			l13.279-13.279l21.214,21.213l-13.28,13.28c-4.84,4.84-5.79,12.342-2.309,18.235c4.985,8.44,8.755,17.55,11.204,27.074
			c1.705,6.63,7.682,11.264,14.527,11.264H482V361z"/>
	</g>
</g>
</svg>
