<?xml version="1.0" encoding="iso-8859-1"?>
<!-- Generator: Adobe Illustrator 19.0.0, SVG Export Plug-In . SVG Version: 6.00 Build 0)  -->
<svg version="1.1" id="Layer_1" xmlns="http://www.w3.org/2000/svg" xmlns:xlink="http://www.w3.org/1999/xlink" x="0px" y="0px"
	 viewBox="0 0 512 512" style="enable-background:new 0 0 512 512;" xml:space="preserve">
<g>
	<g>
		<g>
			<path d="M42.667,256v-29.867C79.701,245.803,135.979,256,192,256s112.299-10.197,149.333-29.867V256H384V85.333
				C384,29.312,287.424,0,192,0S0,29.312,0,85.333v256c0,56.021,96.576,85.333,192,85.333c37.376,0,74.816-4.565,106.667-13.397
				v-44.501C273.579,377.216,237.845,384,192,384c-97.003,0-149.333-30.293-149.333-42.667v-29.867
				c37.035,19.669,93.312,29.867,149.333,29.867c37.419,0,74.837-4.651,106.667-13.547v-44.352
				c-25.088,8.448-60.821,15.232-106.667,15.232C94.997,298.667,42.667,268.373,42.667,256z M192,42.667
				c97.003,0,149.333,30.293,149.333,42.667C341.333,97.707,289.003,128,192,128S42.667,97.707,42.667,85.333
				C42.667,72.96,94.997,42.667,192,42.667z M42.667,140.8c37.035,19.669,93.312,29.867,149.333,29.867
				s112.299-10.197,149.333-29.867v29.867c0,12.373-52.331,42.667-149.333,42.667S42.667,183.04,42.667,170.667V140.8z"/>
			<polygon points="448,405.333 448,341.333 405.333,341.333 405.333,405.333 341.333,405.333 341.333,448 405.333,448 405.333,512 
				448,512 448,448 512,448 512,405.333 			"/>
		</g>
	</g>
</g>
<g>
</g>
<g>
</g>
<g>
</g>
<g>
</g>
<g>
</g>
<g>
</g>
<g>
</g>
<g>
</g>
<g>
</g>
<g>
</g>
<g>
</g>
<g>
</g>
<g>
</g>
<g>
</g>
<g>
</g>
</svg>
