<?xml version="1.0" encoding="iso-8859-1"?>
<!-- Generator: Adobe Illustrator 19.0.0, SVG Export Plug-In . SVG Version: 6.00 Build 0)  -->
<svg version="1.1" id="Layer_1" xmlns="http://www.w3.org/2000/svg" xmlns:xlink="http://www.w3.org/1999/xlink" x="0px" y="0px"
	 viewBox="0 0 490.667 490.667" class="gicon" fill="#0d2032" style="enable-background:new 0 0 490.667 490.667;" xml:space="preserve">
<g>
	<g>
		<g>
			<path d="M165.333,341.333h160c0-49.088-30.912-80-80-80S165.333,292.245,165.333,341.333z"/>
			<circle cx="245.312" cy="181.333" r="53.333"/>
			<path d="M447.701,109.355l-192-106.667c-6.464-3.584-14.272-3.584-20.736,0l-192,106.667C36.203,113.131,32,120.256,32,128
				c0,14.805,2.432,362.667,213.333,362.667S458.667,142.805,458.667,128C458.667,120.235,454.464,113.109,447.701,109.355z
				 M245.333,448c-149.269,0-168-248.725-170.325-307.627l170.325-94.656l170.325,94.656C413.333,199.296,394.603,448,245.333,448z"
				/>
		</g>
	</g>
</g>
</svg>
