<?xml version="1.0" encoding="iso-8859-1"?>
<!-- Generator: Adobe Illustrator 19.0.0, SVG Export Plug-In . SVG Version: 6.00 Build 0)  -->
<svg version="1.1" id="Layer_1" xmlns="http://www.w3.org/2000/svg" xmlns:xlink="http://www.w3.org/1999/xlink" x="0px" y="0px"
	 viewBox="0 0 499.499 499.499" style="enable-background:new 0 0 499.499 499.499;" xml:space="preserve" class="gicon" fill="#0d2032">
<g>
	<g>
		<path d="M390.251,307.499l27.584,27.584h-55.168c-48.533,0-80.491-39.979-112.555-85.333
			c32.064-45.355,64.021-85.333,112.555-85.333h55.168L390.251,192l30.165,30.165l79.083-79.083L420.416,64l-30.165,30.165
			l27.584,27.584h-55.168c-63.872,0-104.533,44.501-138.667,91.2c-34.133-46.699-74.795-91.2-138.667-91.2H0v42.667h85.333
			c48.533,0,80.491,39.979,112.555,85.333c-32.064,45.355-64.021,85.333-112.555,85.333H0v42.667h85.333
			c63.872,0,104.533-44.501,138.667-91.2c34.133,46.699,74.795,91.2,138.667,91.2h55.168l-27.584,27.584l30.165,30.165
			l79.083-79.083l-79.083-79.083L390.251,307.499z"/>
	</g>
</g>
</svg>
