<?xml version="1.0" encoding="iso-8859-1"?>
<!-- Generator: Adobe Illustrator 19.0.0, SVG Export Plug-In . SVG Version: 6.00 Build 0)  -->
<svg version="1.1" id="Layer_1" xmlns="http://www.w3.org/2000/svg" xmlns:xlink="http://www.w3.org/1999/xlink" x="0px" y="0px"
	 viewBox="0 0 499.499 499.499" class="gicon" fill="#0d2032" style="enable-background:new 0 0 499.499 499.499;" xml:space="preserve">
<g>
	<g>
		<path d="M390.251,307.499l27.584,27.584h-55.168c-61.035,0-73.173-17.408-89.963-41.515
			c-10.219-14.656-21.675-31.104-43.285-43.819c21.632-12.715,33.088-29.163,43.285-43.819
			c16.789-24.107,28.928-41.515,89.963-41.515h55.168L390.251,192l30.165,30.165l79.083-79.083L420.416,64l-30.165,30.165
			l27.584,27.584h-55.168c-83.307,0-105.451,31.765-124.971,59.797C220.16,206.699,205.035,228.416,128,228.416H0v42.667h128
			c77.035,0,92.16,21.717,109.696,46.869c19.52,28.032,41.664,59.797,124.971,59.797h55.168l-27.584,27.584l30.165,30.165
			l79.083-79.083l-79.083-79.083L390.251,307.499z"/>
	</g>
</g>
</svg>
