<?xml version="1.0" encoding="iso-8859-1"?>
<!-- Generator: Adobe Illustrator 19.0.0, SVG Export Plug-In . SVG Version: 6.00 Build 0)  -->
<svg version="1.1" id="Layer_1" xmlns="http://www.w3.org/2000/svg" xmlns:xlink="http://www.w3.org/1999/xlink" x="0px" y="0px"
	 viewBox="0 0 426.667 426.667" style="enable-background:new 0 0 426.667 426.667;" xml:space="preserve">
<g>
	<g>
		<g>
			<path d="M149.333,0H42.667C19.115,0,0,19.157,0,42.667v106.667C0,172.864,19.115,192,42.667,192h106.667
				C172.885,192,192,172.864,192,149.333V42.667C192,19.157,172.885,0,149.333,0z M149.269,149.333H42.667V42.667h106.667
				L149.269,149.333z"/>
			<path d="M384,0H277.333c-23.552,0-42.667,19.157-42.667,42.667v106.667c0,23.531,19.115,42.667,42.667,42.667H384
				c23.552,0,42.667-19.136,42.667-42.667V42.667C426.667,19.157,407.552,0,384,0z M383.936,149.333H277.333V42.667H384
				L383.936,149.333z"/>
			<path d="M149.333,234.667H42.667C19.115,234.667,0,253.824,0,277.333V384c0,23.531,19.115,42.667,42.667,42.667h106.667
				C172.885,426.667,192,407.531,192,384V277.333C192,253.824,172.885,234.667,149.333,234.667z M149.269,384H42.667V277.333v0
				h106.667L149.269,384z"/>
			<path d="M384,234.667H277.333c-23.552,0-42.667,19.157-42.667,42.667V384c0,23.531,19.115,42.667,42.667,42.667H384
				c23.552,0,42.667-19.136,42.667-42.667V277.333C426.667,253.824,407.552,234.667,384,234.667z M383.936,384H277.333V277.333v0
				H384L383.936,384z"/>
		</g>
	</g>
</g>
<g>
</g>
<g>
</g>
<g>
</g>
<g>
</g>
<g>
</g>
<g>
</g>
<g>
</g>
<g>
</g>
<g>
</g>
<g>
</g>
<g>
</g>
<g>
</g>
<g>
</g>
<g>
</g>
<g>
</g>
</svg>
