<?xml version="1.0" encoding="iso-8859-1"?>
<!-- Generator: Adobe Illustrator 19.0.0, SVG Export Plug-In . SVG Version: 6.00 Build 0)  -->
<svg version="1.1" id="Capa_1" xmlns="http://www.w3.org/2000/svg" xmlns:xlink="http://www.w3.org/1999/xlink" x="0px" y="0px"
	 viewBox="0 0 512 512" style="enable-background:new 0 0 512 512;" xml:space="preserve">
<g>
	<g>
		<path d="M437,301.999h-75v-122c5.438,0,129.335,0,135,0c8.284,0,15-6.716,15-15C512,73.721,437.458-0.548,346.043,0.011
			C261.633-0.952,180,69.581,180,164.999c0,8.284,6.716,15,15,15c7.468,0,131.382,0,137,0v122h-98.435
			c-0.658-0.658-129.301-129.309-129.97-129.956c-20.046-19.406-45.835-14.01-60.95,1.352
			c-15.619,15.874-21.138,43.826-0.601,64.362l36.498,36.498c-0.731,0.907-74.788,92.772-75.491,93.701
			C0.992,370.672,0,373.901,0,376.999c0,9.497,0,80.292,0,90c0,24.813,20.187,45,45,45s45-20.187,45-45v-15h332v15
			c0,24.813,20.187,45,45,45s45-20.187,45-45c0-9.497,0-80.292,0-90C512,335.644,478.355,301.999,437,301.999z M481.172,149.999
			h-59.469c-1.399-35.891-8.404-78.78-25.277-110.628C442.034,57.379,475.567,99.537,481.172,149.999z M267.504,149.999H210.84
			c5.537-49.122,37.933-90.371,82.345-109.138C276.383,72.48,268.999,114.002,267.504,149.999z M297.522,149.999
			c3.187-70.997,28.876-119.831,48.387-119.987c17.73,0.541,42.73,46.681,45.781,119.987H297.522z M63.258,216.545
			c-10.279-10.28-0.39-20.929,0.771-22.109c5.945-6.045,12.786-6.76,19.233-0.313l133.483,133.483
			c2.813,2.813,6.628,4.394,10.606,4.394H437c19.555,0,36.228,12.542,42.42,30H208.713
			C200.187,353.474,69.868,223.155,63.258,216.545z M99.878,295.59l66.409,66.409H46.355L99.878,295.59z M60,466.999
			c0,8.271-6.729,15-15,15s-15-6.729-15-15v-15h30V466.999z M482,466.999c0,8.271-6.729,15-15,15s-15-6.729-15-15v-15h30V466.999z
			 M482,421.999H30c0-10.856,0-19.144,0-30h452C482,402.855,482,411.143,482,421.999z"/>
	</g>
</g>
<g>
</g>
<g>
</g>
<g>
</g>
<g>
</g>
<g>
</g>
<g>
</g>
<g>
</g>
<g>
</g>
<g>
</g>
<g>
</g>
<g>
</g>
<g>
</g>
<g>
</g>
<g>
</g>
<g>
</g>
</svg>
