<?xml version="1.0" encoding="iso-8859-1"?>
<!-- Generator: Adobe Illustrator 19.0.0, SVG Export Plug-In . SVG Version: 6.00 Build 0)  -->
<svg version="1.1" id="Layer_1" xmlns="http://www.w3.org/2000/svg" xmlns:xlink="http://www.w3.org/1999/xlink" x="0px" y="0px"
	 viewBox="0 0 512.001 512.001" style="enable-background:new 0 0 512.001 512.001;" xml:space="preserve">
<g>
	<g>
		<path d="M496.326,221.194H252.427l241.395-35.444c8.55-1.255,14.471-9.193,13.237-17.745
			c-0.623-4.314-21.491-148.973-22.115-153.301c-1.237-8.573-9.211-14.531-17.789-13.269L13.399,68.06
			c-8.55,1.256-14.471,9.193-13.237,17.745c0.615,4.265,21.341,147.935,21.955,152.19c0,7.632,0,238.175,0,257.066
			c0,8.656,7.017,15.673,15.673,15.673h458.536c8.656,0,15.673-7.017,15.673-15.673c0-18.582,0-249.794,0-258.193
			C512,228.212,504.982,221.194,496.326,221.194z M344.622,252.542l-45.707,46.111H189.496l45.707-46.111H344.622z M145.359,298.653
			H53.464v-46.111h137.602L145.359,298.653z M230.876,192.676l-51.806-38.984l108.332-15.906l51.806,38.984L230.876,192.676z
			 M467.218,111.382l6.583,45.625l-90.969,13.357l-51.806-38.985L467.218,111.382z M33.421,96.803l422.741-62.071l6.582,45.625
			l-422.74,62.071L33.421,96.803z M44.479,173.454l90.969-13.357l51.806,38.984L51.06,219.078L44.479,173.454z M53.464,479.387
			V329.999h427.189v149.388H53.464z M480.653,298.653H343.052l45.707-46.111h91.894V298.653z"/>
	</g>
</g>
<g>
	<g>
		<path d="M301.775,391.15l-49.128-28.614c-10.443-6.081-23.562,1.48-23.562,13.543v57.23c0,12.049,13.109,19.631,23.562,13.543
			l49.128-28.614C312.118,412.214,312.159,397.198,301.775,391.15z"/>
	</g>
</g>
<g>
</g>
<g>
</g>
<g>
</g>
<g>
</g>
<g>
</g>
<g>
</g>
<g>
</g>
<g>
</g>
<g>
</g>
<g>
</g>
<g>
</g>
<g>
</g>
<g>
</g>
<g>
</g>
<g>
</g>
</svg>
