<?xml version="1.0" encoding="iso-8859-1"?>
<!-- Generator: Adobe Illustrator 19.0.0, SVG Export Plug-In . SVG Version: 6.00 Build 0)  -->
<svg version="1.1" id="Layer_1" xmlns="http://www.w3.org/2000/svg" xmlns:xlink="http://www.w3.org/1999/xlink" x="0px" y="0px"
	 viewBox="0 0 512 512" style="enable-background:new 0 0 512 512;" xml:space="preserve">
<g>
	<g>
		<path d="M298.754,190.006h-54.335c-8.656,0-15.673,7.018-15.673,15.673v64.445c0,8.656,7.018,15.673,15.674,15.673h54.335
			c8.656,0,15.673-7.018,15.673-15.673v-64.445C314.428,197.023,307.41,190.006,298.754,190.006z M283.081,254.451h-22.988v-33.098
			h0h22.988V254.451z"/>
	</g>
</g>
<g>
	<g>
		<path d="M496.327,164.222h-40.909v-8.149c0-8.656-7.018-15.673-15.673-15.673h-60.077v-29.443h26.477
			c8.656,0,15.674-7.018,15.674-15.673s-7.018-15.673-15.674-15.673c-2.506,0-175.443,0-177.393,0
			c-8.656,0-15.673,7.018-15.673,15.673s7.018,15.673,15.673,15.673h26.477v29.443h-60.077c-8.656,0-15.673,7.018-15.673,15.673
			v28.95h-25.841c-1.475-5.194-5.566-9.388-10.977-10.852L19.764,140.943C9.807,138.25,0,145.763,0,156.073V319.73
			c0,10.268,9.767,17.832,19.764,15.13l122.896-33.229c5.41-1.464,9.502-5.658,10.977-10.853h25.841c0,8.618,0,68.211,0,76.418
			c0,8.656,7.018,15.673,15.673,15.673h68.595v33.848c0,8.656,7.018,15.673,15.673,15.673h76.055
			c8.656,0,15.673-7.018,15.673-15.673v-33.848h68.595c8.656,0,15.673-7.018,15.673-15.673c0-6.798,0-49.461,0-55.617h40.909
			c8.656,0,15.673-7.018,15.673-15.674v-116.01C512,171.239,504.982,164.222,496.327,164.222z M122.896,274.503l-91.549,24.753
			V176.548l91.549,24.753V274.503z M179.478,259.432h-25.235V216.37h25.235V259.432z M286.576,110.956h61.745v29.443h-61.745
			V110.956z M339.802,401.045h-44.708V382.87h44.708V401.045z M424.071,351.523c-7.69,0-205.906,0-213.246,0v-16.12h213.246V351.523
			z M424.071,295.906v8.15H210.825c0-4.967,0-127.304,0-132.31h213.246C424.071,175.552,424.071,290.37,424.071,295.906z
			 M480.653,280.233h-25.235v-84.664h25.235V280.233z"/>
	</g>
</g>
<g>
	<g>
		<path d="M390.476,198.706h-42.453c-8.656,0-15.673,7.018-15.673,15.673s7.018,15.673,15.673,15.673h42.453
			c8.656,0,15.673-7.018,15.673-15.673S399.132,198.706,390.476,198.706z"/>
	</g>
</g>
<g>
	<g>
		<path d="M390.476,245.75h-42.453c-8.656,0-15.673,7.018-15.673,15.673c0,8.656,7.018,15.673,15.673,15.673h42.453
			c8.656,0,15.673-7.018,15.673-15.673C406.15,252.768,399.132,245.75,390.476,245.75z"/>
	</g>
</g>
<g>
</g>
<g>
</g>
<g>
</g>
<g>
</g>
<g>
</g>
<g>
</g>
<g>
</g>
<g>
</g>
<g>
</g>
<g>
</g>
<g>
</g>
<g>
</g>
<g>
</g>
<g>
</g>
<g>
</g>
</svg>
