<?xml version="1.0" encoding="iso-8859-1"?>
<!-- Generator: Adobe Illustrator 19.0.0, SVG Export Plug-In . SVG Version: 6.00 Build 0)  -->
<svg version="1.1" id="Capa_1" xmlns="http://www.w3.org/2000/svg" xmlns:xlink="http://www.w3.org/1999/xlink" x="0px" y="0px"
	 viewBox="0 0 512 512" style="enable-background:new 0 0 512 512;" xml:space="preserve">
<g>
	<g>
		<path d="M105,242c-24.813,0-45,20.187-45,45s20.187,45,45,45s45-20.187,45-45S129.813,242,105,242z M105,302
			c-8.271,0-15-6.729-15-15s6.729-15,15-15s15,6.729,15,15S113.271,302,105,302z"/>
	</g>
</g>
<g>
	<g>
		<path d="M225,362c-24.813,0-45,20.187-45,45s20.187,45,45,45s45-20.187,45-45S249.813,362,225,362z M225,422
			c-8.271,0-15-6.729-15-15s6.729-15,15-15s15,6.729,15,15S233.271,422,225,422z"/>
	</g>
</g>
<g>
	<g>
		<path d="M233.32,244.519c-6.894-4.595-16.206-2.732-20.801,4.161l-120,180c-4.596,6.893-2.733,16.206,4.16,20.801
			c6.897,4.597,16.209,2.729,20.801-4.161l120-180C242.076,258.428,240.214,249.115,233.32,244.519z"/>
	</g>
</g>
<g>
	<g>
		<path d="M467,0h-61c-3.777,0-7.655,1.472-10.548,4.335L330,69.068V15c0-8.284-6.716-15-15-15H45C20.187,0,0,20.187,0,45
			c0,8.145,0,417.134,0,422c0,24.813,20.187,45,45,45h422c24.813,0,45-20.187,45-45c0-20.758,0-406.901,0-422
			C512,20.187,491.813,0,467,0z M391,50.932V90h-39.502L391,50.932z M482,467c0,8.271-6.729,15-15,15H330v-15
			c0-8.284-6.716-15-15-15s-15,6.716-15,15v15H45c-8.271,0-15-6.729-15-15c0-9.877,0-230.072,0-240c0-8.271,6.729-15.1,15-15.1
			c137.291,0.137,53.983,0.13,255,0c0,7.43,0,67.264,0,75.1v30c0,8.284,6.716,15,15,15s15-6.716,15-15v-15h76
			c8.284,0,15-6.716,15-15v-75h46c8.271,0,15,6.729,15,15C482,236.542,482,457.112,482,467z M351.498,272L391,232.932V272H351.498z
			 M482,184.58c-4.695-1.665-9.741-2.58-15-2.58h-61c-3.795,0-7.682,1.502-10.548,4.335L330,251.068c0-32.806,0-21.3,0-54.068
			c0-8.284-6.716-15-15-15H172.774l64.77-98.774c4.542-6.928,2.609-16.227-4.318-20.769c-6.927-4.542-16.227-2.61-20.77,4.318
			L136.898,182H45c-5.259,0-10.305,0.915-15,2.58V45c0-8.271,6.729-15,15-15h255c0,0,0,104.882,0,105c0,8.284,6.716,15,15,15
			s15-6.716,15-15v-15h76c8.284,0,15-6.716,15-15V30h46c8.271,0,15,6.729,15,15V184.58z"/>
	</g>
</g>
<g>
	<g>
		<path d="M315,362c-8.284,0-15,6.716-15,15v30c0,8.284,6.716,15,15,15s15-6.716,15-15v-30C330,368.716,323.284,362,315,362z"/>
	</g>
</g>
<g>
	<g>
		<path d="M437,332h-62c-8.284,0-15,6.716-15,15s6.716,15,15,15h62c8.284,0,15-6.716,15-15S445.284,332,437,332z"/>
	</g>
</g>
<g>
	<g>
		<path d="M437,392h-62c-8.284,0-15,6.716-15,15s6.716,15,15,15h62c8.284,0,15-6.716,15-15S445.284,392,437,392z"/>
	</g>
</g>
<g>
	<g>
		<path d="M105,60c-24.813,0-45,20.187-45,45s20.187,45,45,45s45-20.187,45-45S129.813,60,105,60z M105,120c-8.271,0-15-6.729-15-15
			s6.729-15,15-15s15,6.729,15,15S113.271,120,105,120z"/>
	</g>
</g>
<g>
</g>
<g>
</g>
<g>
</g>
<g>
</g>
<g>
</g>
<g>
</g>
<g>
</g>
<g>
</g>
<g>
</g>
<g>
</g>
<g>
</g>
<g>
</g>
<g>
</g>
<g>
</g>
<g>
</g>
</svg>
